[
    {
        "id": 73,
        "name": "Buttercup",
        "company": "Powerpuff Brigade"
    },
    {
        "id": 92,
        "name": "Charles Xavier",
        "company": "X-Men",
        "birthday": "2023-21-22"
    },
    {
        "id": 94,
        "name": "Bubbles",
        "company": "Powerpuff Brigade",
        "birthday": "2023-21-22"
    },
    {
        "id": 13,
        "name": "Fred",
        "company": "Scooby Doo"
    },
    {
        "id": 23,
        "name": "Daphny",
        "company": "Scooby Doo"
    },
    {
        "id": 89,
        "name": "Welma",
        "company": "Scooby Doo"
    },
    {
        "id": 2,
        "name": "Xyclops",
        "company": "X-Men",
        "birthday": "2023-21-22"
    },
    {
        "id": 93,
        "name": "Blossom",
        "company": "Powerpuff Brigade"
    }
]